<svg xmlns="http://www.w3.org/2000/svg" width="86.37" height="21.07" viewBox="0 0 86.37 21.07">
  <defs>
    <style>
      .a {
        fill: #fff;
        stroke: #fff;
        stroke-linecap: round;
        stroke-linejoin: round;
        stroke-width: 0.3px;
      }
    </style>
  </defs>
  <title>_txt_nav03</title>
  <g>
    <path class="a" d="M.26,10.1s-.11,0-.11,0a12.12,12.12,0,0,1,1.33-1C4.85,6.7,8.39,2.68,8.65,1.2c.09-.48.15-.87,1-.87.42,0,1.16.25,1.16.85a.39.39,0,0,1-.35.39,23.08,23.08,0,0,0,6.77,5.68,12.48,12.48,0,0,0,2.43,1.06c.55.16,1.14.25,1.14.3a5,5,0,0,1-2.05,1.2c-.33,0-2.1-.51-4.52-2.78A23.57,23.57,0,0,1,10,2.22C6.84,7,2.23,10.1.26,10.1ZM5,18.47c0-1.1.07-5.5-.07-6.23,0-.12-.31-.55-.31-.67a1.63,1.63,0,0,1,1.2-1.1c.52,0,.5.39.5.76L6.27,18.5H9.39c0-2.07.09-8.35-.11-10.12C9,8.29,8.89,8.15,8.89,8c0-.44.83-1.38,1.33-1.38a.75.75,0,0,1,.68.81,6,6,0,0,1-.09.62c-.09,1.5-.09,2.81-.09,4.14h3.34c.07-.09.55-1,1-1s1.27.44,1.27,1.08-.55.6-.85.6H10.7V18.5l5.72,0c.13-.21.55-.76,1-.76a1.3,1.3,0,0,1,1.2,1.1c0,.64-.72.64-1.66.64l-10.66,0c-.5,0-4,0-4.2,0s-.66.28-.77.28S1,19.51,1,19.25s.11-.92.55-.92c0,0,1.46.14,1.75.14Z"/>
    <path class="a" d="M36.71,6.15c-1.79,0-12,0-13,0-.22,0-1.18.23-1.4.23S22,6.15,22,5.94a.7.7,0,0,1,.72-.74c.24,0,2.32.14,2.75.14h4c0-.6,0-1.27,0-1.91V2.24a1,1,0,0,0-.26-.8c-.07-.09-.11-.14-.11-.23,0-.44.79-1.06,1.18-1.06s.5.23.5.67c0,.21-.13,1-.13,1.2s0,1.26,0,1.47v.9c0,.16,0,.83,0,1l2.19,0c0-.58,0-1.24,0-1.89V2.24a1.17,1.17,0,0,0-.17-.69.85.85,0,0,1-.2-.32c0-.46.77-1.08,1.18-1.08s.5.23.5.67c0,.21-.13,1-.13,1.2s0,1.26,0,1.47v.9c0,.16,0,.8,0,.94h5.51c.2-.34.44-.74.85-.74a1,1,0,0,1,1,1c0,.51-.28.58-.68.58Zm-6.51,9.79c0,.57-1.77,2-2.67,2.6a14.39,14.39,0,0,1-5.24,1.84s-.24,0-.24-.07.44-.32.57-.37a13.22,13.22,0,0,0,5.79-4c.55-.67.59-.74.9-.74A.83.83,0,0,1,30.19,15.95Zm2.16-1.24c0,.71.07,4.14.07,4.46,0,.48,0,1.59-1,1.59-.42,0-.46-.41-.46-.78S31,18,31,17.65l.07-2.94H28c-.85,0-2.23,0-2.93.07-.2,0-1,.21-1.2.21s-.37-.28-.37-.46a.71.71,0,0,1,.72-.76c.24,0,2.32.14,2.75.14h4.17l0-1.84H26.7c-.17,0-1,.25-1.14.25a.32.32,0,0,1-.33-.34s0-.74.59-.74c.11,0,.63.09.74.09l4.59,0,0-1.91H27c-.52,0-1.81,0-2.23.07-.15,0-.81.18-.94.18s-.48,0-.48-.44a.72.72,0,0,1,.76-.74c.22,0,2.27.14,2.69.14h2.51C28.53,8,27.94,7.51,27.94,7s.46-.58.79-.57c.9,0,1.16,2.16,1.16,2.18h3.28c.11-.71.48-2.25,1.18-2.25.37,0,.79.23.79.55,0,.6-1.2,1.45-1.51,1.68h4.7c.17-.39.42-.71.81-.71a1.07,1.07,0,0,1,1,1c0,.46-.44.51-.94.51H32.36v1.91h4.22a.81.81,0,0,1,.79-.64.92.92,0,0,1,.92.85c0,.51-.46.51-.83.51H32.36v1.82h6.27c.09-.21.33-.76.83-.76a1.08,1.08,0,0,1,1,1c0,.55-.44.58-.85.58H32.93c2.12,2.39,4.68,3.5,8,4.09a5.7,5.7,0,0,1,1.09.25,6.71,6.71,0,0,1-2.51,1.4,7,7,0,0,1-1.9-.69,10.61,10.61,0,0,1-5.11-5.06ZM28.38,3a3.34,3.34,0,0,1-2.82,1.26c-.61,0-.9-.32-.9-.69a.63.63,0,0,1,.66-.67,2.24,2.24,0,0,1,.33,0A4.11,4.11,0,0,0,26.74,3a6.59,6.59,0,0,0,.81,0,6.4,6.4,0,0,1,.66-.12C28.29,2.89,28.38,2.89,28.38,3Zm9.29-1.33a.79.79,0,0,1,.79.76c0,1-3,1.82-3.56,1.82-.13,0-.26,0-.26-.09a.32.32,0,0,1,.11-.18c.59-.51,1.59-1.22,2.21-1.7A.8.8,0,0,1,37.67,1.65Z"/>
    <path class="a" d="M44.18,6.52a1.7,1.7,0,0,1,1.14-1.1c.57,0,.57.53.57.76s-.11.76-.11.9c-.09.67-.22,3.66-.42,4.21a.72.72,0,0,1-.61.51c-.24,0-.24-.28-.24-.39,0-.6.07-3.2.07-3.75a2.51,2.51,0,0,0-.09-.85C44.37,6.75,44.18,6.68,44.18,6.52Zm4.26,12.6a1.38,1.38,0,0,1-1.11,1.31c-.07,0-.48,0-.48-.78,0-.37.13-2.07.15-2.41.2-3.22.26-7.17.26-10.44,0-1.61,0-3-.11-4.51-.2-.09-.35-.19-.35-.3,0-.41.85-1.15,1.29-1.15s.48.46.48.62-.13,1.26-.13,1.5c0,.07-.11,2.78-.11,4.55,0,4.09,0,9.45,0,9.73Zm.39-11.24s0-.07,0-.09A11.57,11.57,0,0,1,50,5.14c.15-.21.35-.53.7-.53a.72.72,0,0,1,.68.67.75.75,0,0,1-.2.51A14.31,14.31,0,0,1,48.83,7.88Zm6.71,1A38.9,38.9,0,0,0,51,9c-.13,0-.66.25-.76.25s-.31,0-.31-.25c0-.8.42-.8.57-.8s1.22.09,1.42.09H55.8a5.35,5.35,0,0,0,0-.6V6.36h-2c-.15,0-.77.23-.9.23s-.31-.09-.31-.23.07-.67.44-.67c.11,0,.57.07.66.07h2.08l0-1.93H52.9c-.2,0-1,.28-1.14.28s-.26-.18-.26-.34c0-.34.15-.62.5-.62l.59,0h3.19a14.28,14.28,0,0,0-.09-1.43c0-.07-.35-.39-.35-.41A1.83,1.83,0,0,1,56.65.15c.46,0,.5.32.5.64a1.75,1.75,0,0,1,0,.41,18.24,18.24,0,0,0-.11,2h3.36c.15-.25.46-.69.74-.69a1.07,1.07,0,0,1,1,.9c0,.37-.33.44-.61.44H57c0,.3,0,1.43,0,1.93H59.1c.11-.23.39-.64.7-.64a.93.93,0,0,1,.9.83c0,.34-.42.41-.66.41H57v.39c0,.23,0,1.31,0,1.52h4.7c.22-.39.52-.9.9-.9a1.3,1.3,0,0,1,1.11,1.06c0,.41-.37.46-.68.46Zm4,7.08H53.62v3.31c0,.46-.48,1.15-1,1.15-.33,0-.44-.28-.44-.57,0-.51.15-2.76.17-3.24.07-1.42.11-3.56.11-3.86,0-.69,0-1,0-1.38,0,0-.31-.3-.31-.37,0-.39.68-.9,1.07-.9s.42.32.46.48h5.55a1.28,1.28,0,0,1,.87-.67c.35,0,.85.3.85.74a4.55,4.55,0,0,1-.11.51,1.92,1.92,0,0,0-.07.62c0,1,.15,5.59.15,6.51s0,2.3-1.57,2.3a3.59,3.59,0,0,1-2.21-1.29s.07,0,.17,0,.92.12,1.09.12c.94,0,1.14-.44,1.14-1.29Zm0-2.44h-6V14c0,.37,0,.83,0,1.31h5.94Zm0-1.93c0-.18-.07-.37-.24-.37H53.66c0,.48,0,1.22,0,1.63h5.94Z"/>
    <path class="a" d="M70.2,7.4l0-2.78c-.61,0-1.77,0-2.36,0-.15,0-.85.25-1,.25s-.28-.32-.28-.46.22-.76.55-.76c.11,0,.52.16.61.16h2.47A11.2,11.2,0,0,0,70,2.16c0-.09-.26-.44-.26-.53,0-.44.66-1.29,1.18-1.29a.57.57,0,0,1,.61.58c0,.14,0,.62-.07.74s-.07,2-.07,2.21h1.94c.28-.39.42-.6.68-.6a1,1,0,0,1,.9.9c0,.34-.24.46-.52.46h-3c0,1.52,0,1.91,0,2.78h2.43c.31-.69.61-.76.77-.76a1.1,1.1,0,0,1,.94,1c0,.41-.42.41-.72.41-1.25,0-6.88,0-7.63.07-.22,0-1.11.25-1.31.25s-.26-.21-.26-.39a.72.72,0,0,1,.63-.76c.13,0,.72.16.85.16Zm1.2,5.08c0,.46,0,.83,0,1.06v1.75h2.19c.17-.3.42-.58.72-.58a1,1,0,0,1,.9.94c0,.37-.42.37-.68.37l-3.12,0,0,4a1,1,0,0,1-1,1c-.46,0-.46-.39-.46-.76s.17-3.66.2-4.19c-.39,0-2.78,0-3,.07s-.72.21-.85.21a.31.31,0,0,1-.35-.34c0-.28.31-.76.59-.76a5.4,5.4,0,0,1,.59.14c.17,0,2.58,0,3.06,0,0-.71,0-1.45,0-1.82v-1H69a18.83,18.83,0,0,0-2.21.09c-.13,0-.74.16-.87.16s-.26-.14-.26-.39.31-.78.66-.78c.13,0,.7.16.83.16a20.66,20.66,0,0,0,2.58.07h1.49l2.8,0c.28-.6.63-.64.77-.64.5,0,.79.6.79,1s-.22.39-.57.39Zm-2-.92c-.5,0-1.49-1.66-1.49-2.14a.57.57,0,0,1,.63-.53.59.59,0,0,1,.52.28,6,6,0,0,1,.52,2.14C69.61,11.49,69.61,11.56,69.42,11.56Zm2.6,0c-.17,0-.2-.09-.2-.23,0-.6.33-2.6,1-2.6.26,0,.7.23.7.55C73.55,9.82,72.5,11.61,72,11.61Zm9.35-9.36c.37-.53.7-.64.9-.64a1.22,1.22,0,0,1,1,1.13,1.48,1.48,0,0,1-.17.48c0,.57,0,3.22,0,3.61a1.58,1.58,0,0,1-1.68,1.42,2.85,2.85,0,0,1-2.16-1.1c0-.12.09-.14.17-.14s1.14.12,1.31.12c1,0,1-.69,1-1.7,0-.3,0-1.68,0-2s0-.55-.37-.55H77.83c-.17.11-.17.39-.17.76,0,1-.11,5.33-.11,6.23l.35,0h4.17c.15-.23.55-.76.92-.76a.9.9,0,0,1,.92.87,1.22,1.22,0,0,1-.31.8,14.94,14.94,0,0,1-2,4.35,11,11,0,0,0,3.91,3.08c.13.07.7.32.7.41a6.56,6.56,0,0,1-2.1,1c-.7,0-2.43-2-3.26-3.45a8.26,8.26,0,0,1-3.28,2.51c.22,1.82-.81,2-1,2-.42,0-.5-.39-.5-.76,0-.09.13-3.38.15-4,0-1.24.17-7.45.17-8.28,0-.64,0-3.84-.09-4.21,0-.09-.35-.46-.35-.55a1.84,1.84,0,0,1,1.27-1.2c.48,0,.5.35.52.58Zm-3.19,8.32a1.69,1.69,0,0,0-.63.09c0,.23,0,.51,0,.76V13c0,.92,0,2.58.07,5.43a9,9,0,0,0,2.75-3.08,15.68,15.68,0,0,1-1.57-4.74Zm1,0a11.88,11.88,0,0,0,1.68,3.66,15.56,15.56,0,0,0,1.29-3.66Z"/>
  </g>
</svg>
